Lab10/Sample_Scopy_Data.csv

;Scopy version,dda5ec6
;Exported on,Friday January 14/01/2022
;Device,M2K
;Nr of samples,3200
;Sample rate,1e+06
;Tool,Oscilloscope
;Additional Information,
Sample,Time(S),CH1(V),CH2(V)
0,-0.0016,0.48122,0.497341
1,-0.001599,0.482738,0.497341
2,-0.001598,0.482738,0.497341
3,-0.001597,0.482738,0.497341
4,-0.001596,0.482738,0.497341
5,-0.001595,0.482738,0.497341
6,-0.001594,0.482738,0.495823
7,-0.001593,0.482738,0.497341
8,-0.001592,0.482738,0.497341
9,-0.001591,0.482738,0.497341
10,-0.00159,0.482738,0.495823
11,-0.001589,0.482738,0.495823
12,-0.001588,0.482738,0.495823
13,-0.001587,0.482738,0.497341
14,-0.001586,0.482738,0.497341
15,-0.001585,0.482738,0.497341
16,-0.001584,0.482738,0.497341
17,-0.001583,0.484256,0.497341
18,-0.001582,0.484256,0.497341
19,-0.001581,0.484256,0.497341
20,-0.00158,0.484256,0.497341
21,-0.001579,0.484256,0.497341
22,-0.001578,0.484256,0.497341
23,-0.001577,0.484256,0.497341
24,-0.001576,0.482738,0.500377
25,-0.001575,0.482738,0.497341
26,-0.001574,0.484256,0.495823
27,-0.001573,0.484256,0.497341
28,-0.001572,0.484256,0.497341
29,-0.001571,0.484256,0.497341
30,-0.00157,0.484256,0.497341
31,-0.001569,0.484256,0.491269
32,-0.001568,0.484256,0.559581
33,-0.001567,0.48122,-0.264717
34,-0.001566,0.472112,-0.490906
35,-0.001565,0.461485,-0.50305
36,-0.001564,0.450859,-0.501532
37,-0.001563,0.441751,-0.501532
38,-0.001562,0.432643,-0.501532
39,-0.001561,0.422016,-0.50305
40,-0.00156,0.412908,-0.501532
41,-0.001559,0.402282,-0.501532
42,-0.001558,0.39621,-0.506086
43,-0.001557,0.385583,-0.501532
44,-0.001556,0.377993,-0.501532
45,-0.001555,0.368885,-0.500014
46,-0.001554,0.359776,-0.50305
47,-0.001553,0.350668,-0.501532
48,-0.001552,0.34156,-0.501532
49,-0.001551,0.332452,-0.501532
50,-0.00155,0.324861,-0.501532
51,-0.001549,0.317271,-0.501532
52,-0.001548,0.308163,-0.501532
53,-0.001547,0.299055,-0.501532
54,-0.001546,0.291465,-0.501532
55,-0.001545,0.282356,-0.501532
56,-0.001544,0.274766,-0.50305
57,-0.001543,0.268694,-0.501532
58,-0.001542,0.259586,-0.50305
59,-0.001541,0.253513,-0.501532
60,-0.00154,0.244405,-0.501532
61,-0.001539,0.239851,-0.501532
62,-0.001538,0.229225,-0.501532
63,-0.001537,0.223153,-0.501532
64,-0.001536,0.21708,-0.501532
65,-0.001535,0.206454,-0.501532
66,-0.001534,0.200382,-0.50305
67,-0.001533,0.19431,-0.50305
68,-0.001532,0.186719,-0.50305
69,-0.001531,0.177611,-0.501532
70,-0.00153,0.171539,-0.501532
71,-0.001529,0.163949,-0.501532
72,-0.001528,0.157877,-0.50305
73,-0.001527,0.151804,-0.501532
74,-0.001526,0.145732,-0.50305
75,-0.001525,0.138142,-0.50305
76,-0.001524,0.13207,-0.50305
77,-0.001523,0.125998,-0.50305
78,-0.001522,0.119925,-0.50305
79,-0.001521,0.112335,-0.501532
80,-0.00152,0.106263,-0.50305
81,-0.001519,0.100191,-0.500014
82,-0.001518,0.0926007,-0.50305
83,-0.001517,0.0880466,-0.50305
84,-0.001516,0.0819744,-0.50305
85,-0.001515,0.0743842,-0.50305
86,-0.001514,0.06983,-0.50305
87,-0.001513,0.0622398,-0.50305
88,-0.001512,0.0592037,-0.50305
89,-0.001511,0.0531316,-0.50305
90,-0.00151,0.0485774,-0.50305
91,-0.001509,0.0425052,-0.500014
92,-0.001508,0.034915,-0.50305
93,-0.001507,0.0318789,-0.50305
94,-0.001506,0.0258068,-0.50305
95,-0.001505,0.0197346,-0.50305
96,-0.001504,0.0136624,-0.50305
97,-0.001503,0.0106263,-0.50305
98,-0.001502,0.00455413,-0.50305
99,-0.001501,0,-0.506086
100,-0.0015,-0.00607218,-0.50305
101,-0.001499,-0.0106263,-0.500014
102,-0.001498,-0.0151804,-0.50305
103,-0.001497,-0.0212526,-0.50305
104,-0.001496,-0.0258068,-0.50305
105,-0.001495,-0.0303609,-0.50305
106,-0.001494,-0.034915,-0.50305
107,-0.001493,-0.0394692,-0.501532
108,-0.001492,-0.0440233,-0.50305
109,-0.001491,-0.0470594,-0.50305
110,-0.00149,-0.0531316,-0.50305
111,-0.001489,-0.0576857,-0.50305
112,-0.001488,-0.0622398,-0.50305
113,-0.001487,-0.0667939,-0.506086
114,-0.001486,-0.0743842,-0.50305
115,-0.001485,-0.0759022,-0.50305
116,-0.001484,-0.0819744,-0.50305
117,-0.001483,-0.0850105,-0.50305
118,-0.001482,-0.0880466,-0.50305
119,-0.001481,-0.0926007,-0.50305
120,-0.00148,-0.0956368,-0.507604
121,-0.001479,-0.103227,-0.50305
122,-0.001478,-0.104745,-0.50305
123,-0.001477,-0.110817,-0.50305
124,-0.001476,-0.112335,-0.50305
125,-0.001475,-0.118407,-0.50305
126,-0.001474,-0.121444,-0.50305
127,-0.001473,-0.12448,-0.50305
128,-0.001472,-0.130552,-0.50305
129,-0.001471,-0.13207,-0.50305
130,-0.00147,-0.136624,-0.50305
131,-0.001469,-0.13966,-0.50305
132,-0.001468,-0.142696,-0.50305
133,-0.001467,-0.148768,-0.506086
134,-0.001466,-0.151804,-0.50305
135,-0.001465,-0.154841,-0.506086
136,-0.001464,-0.157877,-0.506086
137,-0.001463,-0.160913,-0.50305
138,-0.001462,-0.163949,-0.50305
139,-0.001461,-0.170021,-0.506086
140,-0.00146,-0.173057,-0.50305
141,-0.001459,-0.176093,-0.506086
142,-0.001458,-0.179129,-0.506086
143,-0.001457,-0.182165,-0.506086
144,-0.001456,-0.185201,-0.50305
145,-0.001455,-0.188237,-0.506086
146,-0.001454,-0.191274,-0.506086
147,-0.001453,-0.197346,-0.506086
148,-0.001452,-0.197346,-0.506086
149,-0.001451,-0.2019,-0.506086
150,-0.00145,-0.204936,-0.506086
151,-0.001449,-0.207972,-0.506086
152,-0.001448,-0.211008,-0.506086
153,-0.001447,-0.214044,-0.506086
154,-0.001446,-0.218598,-0.506086
155,-0.001445,-0.218598,-0.506086
156,-0.001444,-0.223153,-0.509122
157,-0.001443,-0.226189,-0.506086
158,-0.001442,-0.229225,-0.506086
159,-0.001441,-0.230743,-0.506086
160,-0.00144,-0.233779,-0.506086
161,-0.001439,-0.236815,-0.506086
162,-0.001438,-0.236815,-0.506086
163,-0.001437,-0.242887,-0.507604
164,-0.001436,-0.245923,-0.507604
165,-0.001435,-0.248959,-0.507604
166,-0.001434,-0.248959,-0.507604
167,-0.001433,-0.251995,-0.507604
168,-0.001432,-0.255031,-0.506086
169,-0.001431,-0.258068,-0.507604
170,-0.00143,-0.258068,-0.507604
171,-0.001429,-0.262622,-0.507604
172,-0.001428,-0.262622,-0.507604
173,-0.001427,-0.268694,-0.507604
174,-0.001426,-0.270212,-0.506086
175,-0.001425,-0.273248,-0.506086
176,-0.001424,-0.273248,-0.506086
177,-0.001423,-0.276284,-0.507604
178,-0.001422,-0.27932,-0.506086
179,-0.001421,-0.280838,-0.507604
180,-0.00142,-0.283874,-0.507604
181,-0.001419,-0.285392,-0.50305
182,-0.001418,-0.28691,-0.507604
183,-0.001417,-0.289946,-0.507604
184,-0.001416,-0.292983,-0.506086
185,-0.001415,-0.294501,-0.506086
186,-0.001414,-0.297537,-0.506086
187,-0.001413,-0.297537,-0.507604
188,-0.001412,-0.300573,-0.50305
189,-0.001411,-0.303609,-0.507604
190,-0.00141,-0.303609,-0.507604
191,-0.001409,-0.306645,-0.506086
192,-0.001408,-0.308163,-0.506086
193,-0.001407,-0.312717,-0.507604
194,-0.001406,-0.314235,-0.506086
195,-0.001405,-0.315753,-0.506086
196,-0.001404,-0.315753,-0.506086
197,-0.001403,-0.318789,-0.506086
198,-0.001402,-0.321825,-0.506086
199,-0.001401,-0.323343,-0.506086
200,-0.0014,-0.323343,-0.507604
201,-0.001399,-0.324861,-0.506086
202,-0.001398,-0.327898,-0.506086
203,-0.001397,-0.329416,-0.506086
204,-0.001396,-0.330934,-0.506086
205,-0.001395,-0.330934,-0.507604
206,-0.001394,-0.33397,-0.509122
207,-0.001393,-0.337006,-0.507604
208,-0.001392,-0.338524,-0.507604
209,-0.001391,-0.340042,-0.507604
210,-0.00139,-0.34156,-0.507604
211,-0.001389,-0.343078,-0.506086
212,-0.001388,-0.344596,-0.507604
213,-0.001387,-0.346114,-0.507604
214,-0.001386,-0.347632,-0.507604
215,-0.001385,-0.350668,-0.509122
216,-0.001384,-0.352186,-0.506086
217,-0.001383,-0.352186,-0.507604
218,-0.001382,-0.353704,-0.507604
219,-0.001381,-0.355222,-0.507604
220,-0.00138,-0.35674,-0.507604
221,-0.001379,-0.358258,-0.50305
222,-0.001378,-0.358258,-0.507604
223,-0.001377,-0.362813,-0.507604
224,-0.001376,-0.364331,-0.507604
225,-0.001375,-0.365849,-0.509122
226,-0.001374,-0.365849,-0.507604
227,-0.001373,-0.367367,-0.506086
228,-0.001372,-0.367367,-0.506086
229,-0.001371,-0.370403,-0.509122
230,-0.00137,-0.371921,-0.507604
231,-0.001369,-0.373439,-0.507604
232,-0.001368,-0.374957,-0.506086
233,-0.001367,-0.376475,-0.509122
234,-0.001366,-0.374957,-0.506086
235,-0.001365,-0.377993,-0.507604
236,-0.001364,-0.379511,-0.507604
237,-0.001363,-0.381029,-0.506086
238,-0.001362,-0.381029,-0.507604
239,-0.001361,-0.382547,-0.507604
240,-0.00136,-0.382547,-0.507604
241,-0.001359,-0.387101,-0.507604
242,-0.001358,-0.387101,-0.506086
243,-0.001357,-0.387101,-0.507604
244,-0.001356,-0.390137,-0.50305
245,-0.001355,-0.391655,-0.507604
246,-0.001354,-0.391655,-0.507604
247,-0.001353,-0.393173,-0.506086
248,-0.001352,-0.394692,-0.506086
249,-0.001351,-0.394692,-0.509122
250,-0.00135,-0.39621,-0.50305
251,-0.001349,-0.39621,-0.506086
252,-0.001348,-0.397728,-0.507604
253,-0.001347,-0.397728,-0.507604
254,-0.001346,-0.400764,-0.507604
255,-0.001345,-0.399246,-0.506086
256,-0.001344,-0.402282,-0.509122
257,-0.001343,-0.402282,-0.50305
258,-0.001342,-0.4038,-0.507604
259,-0.001341,-0.405318,-0.509122
260,-0.00134,-0.405318,-0.506086
261,-0.001339,-0.408354,-0.506086
262,-0.001338,-0.405318,-0.509122
263,-0.001337,-0.41139,-0.506086
264,-0.001336,-0.409872,-0.506086
265,-0.001335,-0.412908,-0.506086
266,-0.001334,-0.41139,-0.509122
267,-0.001333,-0.414426,-0.506086
268,-0.001332,-0.412908,-0.506086
269,-0.001331,-0.415944,-0.509122
270,-0.00133,-0.415944,-0.507604
271,-0.001329,-0.417462,-0.506086
272,-0.001328,-0.417462,-0.509122
273,-0.001327,-0.41898,-0.509122
274,-0.001326,-0.41898,-0.506086
275,-0.001325,-0.41898,-0.507604
276,-0.001324,-0.422016,-0.509122
277,-0.001323,-0.422016,-0.506086
278,-0.001322,-0.423534,-0.506086
279,-0.001321,-0.422016,-0.506086
280,-0.00132,-0.425052,-0.507604
281,-0.001319,-0.425052,-0.507604
282,-0.001318,-0.42657,-0.509122
283,-0.001317,-0.42657,-0.506086
284,-0.001316,-0.42657,-0.507604
285,-0.001315,-0.42657,-0.507604
286,-0.001314,-0.429607,-0.507604
287,-0.001313,-0.429607,-0.506086
288,-0.001312,-0.429607,-0.506086
289,-0.001311,-0.432643,-0.509122
290,-0.00131,-0.429607,-0.507604
291,-0.001309,-0.434161,-0.507604
292,-0.001308,-0.434161,-0.509122
293,-0.001307,-0.434161,-0.507604
294,-0.001306,-0.435679,-0.507604
295,-0.001305,-0.434161,-0.507604
296,-0.001304,-0.437197,-0.509122
297,-0.001303,-0.435679,-0.509122
298,-0.001302,-0.438715,-0.507604
299,-0.001301,-0.438715,-0.507604
300,-0.0013,-0.438715,-0.507604
301,-0.001299,-0.438715,-0.507604
302,-0.001298,-0.441751,-0.507604
303,-0.001297,-0.441751,-0.509122
304,-0.001296,-0.440233,-0.507604
305,-0.001295,-0.443269,-0.509122
306,-0.001294,-0.443269,-0.509122
307,-0.001293,-0.441751,-0.509122
308,-0.001292,-0.444787,-0.507604
309,-0.001291,-0.443269,-0.507604
310,-0.00129,-0.446305,-0.507604
311,-0.001289,-0.446305,-0.507604
312,-0.001288,-0.444787,-0.507604
313,-0.001287,-0.447823,-0.507604
314,-0.001286,-0.447823,-0.507604
315,-0.001285,-0.447823,-0.507604
316,-0.001284,-0.447823,-0.509122
317,-0.001283,-0.449341,-0.507604
318,-0.001282,-0.450859,-0.507604
319,-0.001281,-0.449341,-0.507604
320,-0.00128,-0.450859,-0.507604
321,-0.001279,-0.450859,-0.507604
322,-0.001278,-0.452377,-0.509122
323,-0.001277,-0.452377,-0.509122
324,-0.001276,-0.452377,-0.507604
325,-0.001275,-0.452377,-0.507604
326,-0.001274,-0.453895,-0.507604
327,-0.001273,-0.456931,-0.507604
328,-0.001272,-0.452377,-0.507604
329,-0.001271,-0.456931,-0.509122
330,-0.00127,-0.453895,-0.507604
331,-0.001269,-0.458449,-0.507604
332,-0.001268,-0.458449,-0.507604
333,-0.001267,-0.458449,-0.509122
334,-0.001266,-0.456931,-0.507604
335,-0.001265,-0.458449,-0.507604
336,-0.001264,-0.459967,-0.507604
337,-0.001263,-0.459967,-0.507604
338,-0.001262,-0.459967,-0.507604
339,-0.001261,-0.461485,-0.507604
340,-0.00126,-0.461485,-0.507604
341,-0.001259,-0.461485,-0.507604
342,-0.001258,-0.463004,-0.507604
343,-0.001257,-0.463004,-0.507604
344,-0.001256,-0.463004,-0.507604
345,-0.001255,-0.463004,-0.507604
346,-0.001254,-0.464522,-0.507604
347,-0.001253,-0.464522,-0.507604
348,-0.001252,-0.464522,-0.507604
349,-0.001251,-0.46604,-0.507604
350,-0.00125,-0.46604,-0.507604
351,-0.001249,-0.46604,-0.507604
352,-0.001248,-0.46604,-0.507604
353,-0.001247,-0.467558,-0.509122
354,-0.001246,-0.46604,-0.507604
355,-0.001245,-0.467558,-0.507604
356,-0.001244,-0.467558,-0.507604
357,-0.001243,-0.467558,-0.507604
358,-0.001242,-0.469076,-0.507604
359,-0.001241,-0.469076,-0.507604
360,-0.00124,-0.469076,-0.509122
361,-0.001239,-0.469076,-0.506086
362,-0.001238,-0.470594,-0.507604
363,-0.001237,-0.470594,-0.507604
364,-0.001236,-0.470594,-0.507604
365,-0.001235,-0.470594,-0.507604
366,-0.001234,-0.470594,-0.507604
367,-0.001233,-0.472112,-0.507604
368,-0.001232,-0.472112,-0.509122
369,-0.001231,-0.472112,-0.510641
370,-0.00123,-0.472112,-0.507604
371,-0.001229,-0.472112,-0.507604
372,-0.001228,-0.472112,-0.507604
373,-0.001227,-0.47363,-0.507604
374,-0.001226,-0.47363,-0.507604
375,-0.001225,-0.47363,-0.507604
376,-0.001224,-0.47363,-0.509122
377,-0.001223,-0.47363,-0.509122
378,-0.001222,-0.475148,-0.507604
379,-0.001221,-0.475148,-0.507604
380,-0.00122,-0.475148,-0.507604
381,-0.001219,-0.475148,-0.507604
382,-0.001218,-0.476666,-0.507604
383,-0.001217,-0.476666,-0.507604
384,-0.001216,-0.476666,-0.507604
385,-0.001215,-0.476666,-0.507604
386,-0.001214,-0.476666,-0.509122
387,-0.001213,-0.476666,-0.507604
388,-0.001212,-0.476666,-0.507604
389,-0.001211,-0.478184,-0.507604
390,-0.00121,-0.478184,-0.507604
391,-0.001209,-0.478184,-0.507604
392,-0.001208,-0.478184,-0.507604
393,-0.001207,-0.478184,-0.507604
394,-0.001206,-0.478184,-0.509122
395,-0.001205,-0.478184,-0.507604
396,-0.001204,-0.48122,-0.507604
397,-0.001203,-0.48122,-0.507604
398,-0.001202,-0.48122,-0.507604
399,-0.001201,-0.48122,-0.509122
400,-0.0012,-0.478184,-0.509122
401,-0.001199,-0.48122,-0.506086
402,-0.001198,-0.482738,-0.509122
403,-0.001197,-0.482738,-0.507604
404,-0.001196,-0.482738,-0.507604
405,-0.001195,-0.482738,-0.507604
406,-0.001194,-0.482738,-0.507604
407,-0.001193,-0.482738,-0.507604
408,-0.001192,-0.482738,-0.507604
409,-0.001191,-0.484256,-0.507604
410,-0.00119,-0.484256,-0.507604
411,-0.001189,-0.484256,-0.507604
412,-0.001188,-0.484256,-0.507604
413,-0.001187,-0.484256,-0.507604
414,-0.001186,-0.484256,-0.509122
415,-0.001185,-0.484256,-0.509122
416,-0.001184,-0.484256,-0.510641
417,-0.001183,-0.484256,-0.509122
418,-0.001182,-0.485774,-0.506086
419,-0.001181,-0.485774,-0.509122
420,-0.00118,-0.485774,-0.507604
421,-0.001179,-0.487292,-0.506086
422,-0.001178,-0.485774,-0.509122
423,-0.001177,-0.485774,-0.507604
424,-0.001176,-0.487292,-0.507604
425,-0.001175,-0.487292,-0.507604
426,-0.001174,-0.487292,-0.507604
427,-0.001173,-0.487292,-0.507604
428,-0.001172,-0.487292,-0.507604
429,-0.001171,-0.487292,-0.509122
430,-0.00117,-0.48881,-0.507604
431,-0.001169,-0.487292,-0.507604
432,-0.001168,-0.487292,-0.507604
433,-0.001167,-0.48881,-0.507604
434,-0.001166,-0.48881,-0.507604
435,-0.001165,-0.48881,-0.507604
436,-0.001164,-0.48881,-0.509122
437,-0.001163,-0.48881,-0.509122
438,-0.001162,-0.48881,-0.507604
439,-0.001161,-0.48881,-0.507604
440,-0.00116,-0.48881,-0.507604
441,-0.001159,-0.490328,-0.507604
442,-0.001158,-0.490328,-0.509122
443,-0.001157,-0.48881,-0.507604
444,-0.001156,-0.490328,-0.507604
445,-0.001155,-0.490328,-0.509122
446,-0.001154,-0.490328,-0.507604
447,-0.001153,-0.490328,-0.507604
448,-0.001152,-0.490328,-0.507604
449,-0.001151,-0.490328,-0.507604
450,-0.00115,-0.490328,-0.507604
451,-0.001149,-0.490328,-0.507604
452,-0.001148,-0.490328,-0.507604
453,-0.001147,-0.491846,-0.510641
454,-0.001146,-0.490328,-0.507604
455,-0.001145,-0.491846,-0.507604
456,-0.001144,-0.491846,-0.509122
457,-0.001143,-0.491846,-0.509122
458,-0.001142,-0.491846,-0.509122
459,-0.001141,-0.491846,-0.507604
460,-0.00114,-0.491846,-0.507604
461,-0.001139,-0.491846,-0.507604
462,-0.001138,-0.490328,-0.507604
463,-0.001137,-0.493364,-0.510641
464,-0.001136,-0.491846,-0.507604
465,-0.001135,-0.491846,-0.507604
466,-0.001134,-0.493364,-0.507604
467,-0.001133,-0.493364,-0.507604
468,-0.001132,-0.493364,-0.507604
469,-0.001131,-0.493364,-0.507604
470,-0.00113,-0.493364,-0.507604
471,-0.001129,-0.493364,-0.507604
472,-0.001128,-0.493364,-0.507604
473,-0.001127,-0.493364,-0.507604
474,-0.001126,-0.493364,-0.507604
475,-0.001125,-0.493364,-0.507604
476,-0.001124,-0.493364,-0.507604
477,-0.001123,-0.493364,-0.507604
478,-0.001122,-0.493364,-0.507604
479,-0.001121,-0.494882,-0.507604
480,-0.00112,-0.494882,-0.507604
481,-0.001119,-0.494882,-0.507604
482,-0.001118,-0.494882,-0.507604
483,-0.001117,-0.494882,-0.507604
484,-0.001116,-0.494882,-0.507604
485,-0.001115,-0.494882,-0.507604
486,-0.001114,-0.494882,-0.510641
487,-0.001113,-0.494882,-0.509122
488,-0.001112,-0.494882,-0.506086
489,-0.001111,-0.494882,-0.509122
490,-0.00111,-0.494882,-0.509122
491,-0.001109,-0.494882,-0.507604
492,-0.001108,-0.494882,-0.507604
493,-0.001107,-0.494882,-0.509122
494,-0.001106,-0.494882,-0.507604
495,-0.001105,-0.494882,-0.507604
496,-0.001104,-0.494882,-0.507604
497,-0.001103,-0.4964,-0.507604
498,-0.001102,-0.494882,-0.507604
499,-0.001101,-0.497919,-0.510641
500,-0.0011,-0.494882,-0.507604
501,-0.001099,-0.4964,-0.507604
502,-0.001098,-0.4964,-0.507604
503,-0.001097,-0.4964,-0.507604
504,-0.001096,-0.4964,-0.507604
505,-0.001095,-0.4964,-0.507604
506,-0.001094,-0.4964,-0.509122
507,-0.001093,-0.4964,-0.507604
508,-0.001092,-0.4964,-0.507604
509,-0.001091,-0.4964,-0.509122
510,-0.00109,-0.4964,-0.509122
511,-0.001089,-0.4964,-0.507604
512,-0.001088,-0.4964,-0.507604
513,-0.001087,-0.4964,-0.507604
514,-0.001086,-0.499437,-0.507604
515,-0.001085,-0.4964,-0.507604
516,-0.001084,-0.4964,-0.507604
517,-0.001083,-0.497919,-0.509122
518,-0.001082,-0.497919,-0.507604
519,-0.001081,-0.497919,-0.507604
520,-0.00108,-0.497919,-0.507604
521,-0.001079,-0.497919,-0.507604
522,-0.001078,-0.497919,-0.507604
523,-0.001077,-0.497919,-0.507604
524,-0.001076,-0.497919,-0.507604
525,-0.001075,-0.497919,-0.507604
526,-0.001074,-0.497919,-0.507604
527,-0.001073,-0.497919,-0.507604
528,-0.001072,-0.497919,-0.507604
529,-0.001071,-0.497919,-0.509122
530,-0.00107,-0.497919,-0.507604
531,-0.001069,-0.497919,-0.501532
532,-0.001068,-0.497919,-0.569844
533,-0.001067,-0.4964,0.255972
534,-0.001066,-0.487292,0.477606
535,-0.001065,-0.478184,0.491269
536,-0.001064,-0.46604,0.489751
537,-0.001063,-0.456931,0.489751
538,-0.001062,-0.446305,0.492787
539,-0.001061,-0.440233,0.489751
540,-0.00106,-0.428088,0.489751
541,-0.001059,-0.420498,0.491269
542,-0.001058,-0.41139,0.489751
543,-0.001057,-0.400764,0.489751
544,-0.001056,-0.394692,0.489751
545,-0.001055,-0.382547,0.489751
546,-0.001054,-0.374957,0.491269
547,-0.001053,-0.365849,0.491269
548,-0.001052,-0.358258,0.491269
549,-0.001051,-0.34915,0.489751
550,-0.00105,-0.340042,0.489751
551,-0.001049,-0.330934,0.491269
552,-0.001048,-0.323343,0.491269
553,-0.001047,-0.315753,0.491269
554,-0.001046,-0.308163,0.491269
555,-0.001045,-0.299055,0.489751
556,-0.001044,-0.292983,0.491269
557,-0.001043,-0.282356,0.491269
558,-0.001042,-0.274766,0.491269
559,-0.001041,-0.268694,0.491269
560,-0.00104,-0.259586,0.489751
561,-0.001039,-0.253513,0.492787
562,-0.001038,-0.244405,0.491269
563,-0.001037,-0.238333,0.492787
564,-0.001036,-0.229225,0.491269
565,-0.001035,-0.223153,0.491269
566,-0.001034,-0.214044,0.489751
567,-0.001033,-0.207972,0.492787
568,-0.001032,-0.200382,0.491269
569,-0.001031,-0.19431,0.492787
570,-0.00103,-0.186719,0.491269
571,-0.001029,-0.180647,0.491269
572,-0.001028,-0.174575,0.492787
573,-0.001027,-0.165467,0.489751
574,-0.001026,-0.159395,0.492787
575,-0.001025,-0.153322,0.492787
576,-0.001024,-0.14725,0.489751
577,-0.001023,-0.13966,0.492787
578,-0.001022,-0.135106,0.491269
579,-0.001021,-0.125998,0.491269
580,-0.00102,-0.122962,0.492787
581,-0.001019,-0.115371,0.491269
582,-0.001018,-0.109299,0.491269
583,-0.001017,-0.103227,0.491269
584,-0.001016,-0.0986729,0.492787
585,-0.001015,-0.0910827,0.492787
586,-0.001014,-0.0850105,0.492787
587,-0.001013,-0.0774203,0.495823
588,-0.001012,-0.0743842,0.492787
589,-0.001011,-0.0652759,0.494305
590,-0.00101,-0.0622398,0.492787
591,-0.001009,-0.0546496,0.492787
592,-0.001008,-0.0516135,0.492787
593,-0.001007,-0.0455413,0.492787
594,-0.001006,-0.0409872,0.494305
595,-0.001005,-0.0364331,0.494305
596,-0.001004,-0.0288428,0.494305
